<?xml version="1.0" encoding="UTF-8"?>
<testsuite xmlns:xsi="http://www.w3.org/2001/XMLSchema-instance" xsi:noNamespaceSchemaLocation="https://maven.apache.org/surefire/maven-surefire-plugin/xsd/surefire-test-report-3.0.xsd" version="3.0" name="TestSuite" time="111.392" tests="6" errors="0" skipped="0" failures="6">
  <properties>
    <property name="sun.desktop" value="windows"/>
    <property name="awt.toolkit" value="sun.awt.windows.WToolkit"/>
    <property name="java.specification.version" value="9"/>
    <property name="file.encoding.pkg" value="sun.io"/>
    <property name="sun.cpu.isalist" value="amd64"/>
    <property name="sun.jnu.encoding" value="Cp1252"/>
    <property name="java.class.path" value="C:\shravan\seleniumProjects\myseleniumframeworkbuild1\target\test-classes;C:\shravan\seleniumProjects\myseleniumframeworkbuild1\target\classes;C:\Users\dhivya\.m2\repository\junit\junit\3.8.1\junit-3.8.1.jar;C:\Users\dhivya\.m2\repository\org\seleniumhq\selenium\selenium-java\3.141.59\selenium-java-3.141.59.jar;C:\Users\dhivya\.m2\repository\org\seleniumhq\selenium\selenium-api\3.141.59\selenium-api-3.141.59.jar;C:\Users\dhivya\.m2\repository\org\seleniumhq\selenium\selenium-chrome-driver\3.141.59\selenium-chrome-driver-3.141.59.jar;C:\Users\dhivya\.m2\repository\org\seleniumhq\selenium\selenium-edge-driver\3.141.59\selenium-edge-driver-3.141.59.jar;C:\Users\dhivya\.m2\repository\org\seleniumhq\selenium\selenium-firefox-driver\3.141.59\selenium-firefox-driver-3.141.59.jar;C:\Users\dhivya\.m2\repository\org\seleniumhq\selenium\selenium-ie-driver\3.141.59\selenium-ie-driver-3.141.59.jar;C:\Users\dhivya\.m2\repository\org\seleniumhq\selenium\selenium-opera-driver\3.141.59\selenium-opera-driver-3.141.59.jar;C:\Users\dhivya\.m2\repository\org\seleniumhq\selenium\selenium-remote-driver\3.141.59\selenium-remote-driver-3.141.59.jar;C:\Users\dhivya\.m2\repository\org\seleniumhq\selenium\selenium-safari-driver\3.141.59\selenium-safari-driver-3.141.59.jar;C:\Users\dhivya\.m2\repository\org\seleniumhq\selenium\selenium-support\3.141.59\selenium-support-3.141.59.jar;C:\Users\dhivya\.m2\repository\net\bytebuddy\byte-buddy\1.8.15\byte-buddy-1.8.15.jar;C:\Users\dhivya\.m2\repository\org\apache\commons\commons-exec\1.3\commons-exec-1.3.jar;C:\Users\dhivya\.m2\repository\com\google\guava\guava\25.0-jre\guava-25.0-jre.jar;C:\Users\dhivya\.m2\repository\com\google\code\findbugs\jsr305\1.3.9\jsr305-1.3.9.jar;C:\Users\dhivya\.m2\repository\org\checkerframework\checker-compat-qual\2.0.0\checker-compat-qual-2.0.0.jar;C:\Users\dhivya\.m2\repository\com\google\errorprone\error_prone_annotations\2.1.3\error_prone_annotations-2.1.3.jar;C:\Users\dhivya\.m2\repository\com\google\j2objc\j2objc-annotations\1.1\j2objc-annotations-1.1.jar;C:\Users\dhivya\.m2\repository\org\codehaus\mojo\animal-sniffer-annotations\1.14\animal-sniffer-annotations-1.14.jar;C:\Users\dhivya\.m2\repository\com\squareup\okhttp3\okhttp\3.11.0\okhttp-3.11.0.jar;C:\Users\dhivya\.m2\repository\com\squareup\okio\okio\1.14.0\okio-1.14.0.jar;C:\Users\dhivya\.m2\repository\org\testng\testng\6.9.10\testng-6.9.10.jar;C:\Users\dhivya\.m2\repository\com\beust\jcommander\1.48\jcommander-1.48.jar;C:\Users\dhivya\.m2\repository\org\beanshell\bsh\2.0b4\bsh-2.0b4.jar;C:\Users\dhivya\.m2\repository\org\apache\logging\log4j\log4j-api\2.11.1\log4j-api-2.11.1.jar;C:\Users\dhivya\.m2\repository\org\apache\logging\log4j\log4j-core\2.11.1\log4j-core-2.11.1.jar;C:\Users\dhivya\.m2\repository\commons-io\commons-io\2.4\commons-io-2.4.jar;C:\Users\dhivya\.m2\repository\com\aventstack\extentreports\4.0.0\extentreports-4.0.0.jar;C:\Users\dhivya\.m2\repository\org\freemarker\freemarker\2.3.23\freemarker-2.3.23.jar;C:\Users\dhivya\.m2\repository\org\mongodb\mongodb-driver\3.3.0\mongodb-driver-3.3.0.jar;C:\Users\dhivya\.m2\repository\org\mongodb\mongodb-driver-core\3.3.0\mongodb-driver-core-3.3.0.jar;C:\Users\dhivya\.m2\repository\org\mongodb\bson\3.3.0\bson-3.3.0.jar;C:\Users\dhivya\.m2\repository\org\apache\httpcomponents\httpclient\4.5.2\httpclient-4.5.2.jar;C:\Users\dhivya\.m2\repository\org\apache\httpcomponents\httpcore\4.4.4\httpcore-4.4.4.jar;C:\Users\dhivya\.m2\repository\commons-logging\commons-logging\1.2\commons-logging-1.2.jar;C:\Users\dhivya\.m2\repository\commons-codec\commons-codec\1.9\commons-codec-1.9.jar;C:\Users\dhivya\.m2\repository\org\apache\httpcomponents\httpmime\4.5.2\httpmime-4.5.2.jar;C:\Users\dhivya\.m2\repository\com\google\code\gson\gson\2.8.5\gson-2.8.5.jar;C:\Users\dhivya\.m2\repository\io\github\bonigarcia\webdrivermanager\3.4.0\webdrivermanager-3.4.0.jar;C:\Users\dhivya\.m2\repository\org\slf4j\slf4j-api\1.7.25\slf4j-api-1.7.25.jar;C:\Users\dhivya\.m2\repository\org\apache\commons\commons-lang3\3.8.1\commons-lang3-3.8.1.jar;C:\Users\dhivya\.m2\repository\org\rauschig\jarchivelib\1.0.0\jarchivelib-1.0.0.jar;C:\Users\dhivya\.m2\repository\org\apache\commons\commons-compress\1.18\commons-compress-1.18.jar;C:\Users\dhivya\.m2\repository\org\jsoup\jsoup\1.11.3\jsoup-1.11.3.jar;"/>
    <property name="java.vm.vendor" value="Oracle Corporation"/>
    <property name="sun.arch.data.model" value="64"/>
    <property name="user.variant" value=""/>
    <property name="java.vendor.url" value="http://java.oracle.com/"/>
    <property name="user.timezone" value="Asia/Calcutta"/>
    <property name="java.vm.specification.version" value="9"/>
    <property name="os.name" value="Windows 10"/>
    <property name="sun.java.launcher" value="SUN_STANDARD"/>
    <property name="user.country" value="US"/>
    <property name="sun.boot.library.path" value="C:\Program Files\Java\jdk-9.0.4\bin"/>
    <property name="sun.java.command" value="C:\Users\dhivya\AppData\Local\Temp\surefire11109842027954259611\surefirebooter2912213848786135653.jar C:\Users\dhivya\AppData\Local\Temp\surefire11109842027954259611 2019-03-27T23-27-24_797-jvmRun1 surefire16236654547792037643tmp surefire_016546143898495999582tmp"/>
    <property name="jdk.debug" value="release"/>
    <property name="surefire.test.class.path" value="C:\shravan\seleniumProjects\myseleniumframeworkbuild1\target\test-classes;C:\shravan\seleniumProjects\myseleniumframeworkbuild1\target\classes;C:\Users\dhivya\.m2\repository\junit\junit\3.8.1\junit-3.8.1.jar;C:\Users\dhivya\.m2\repository\org\seleniumhq\selenium\selenium-java\3.141.59\selenium-java-3.141.59.jar;C:\Users\dhivya\.m2\repository\org\seleniumhq\selenium\selenium-api\3.141.59\selenium-api-3.141.59.jar;C:\Users\dhivya\.m2\repository\org\seleniumhq\selenium\selenium-chrome-driver\3.141.59\selenium-chrome-driver-3.141.59.jar;C:\Users\dhivya\.m2\repository\org\seleniumhq\selenium\selenium-edge-driver\3.141.59\selenium-edge-driver-3.141.59.jar;C:\Users\dhivya\.m2\repository\org\seleniumhq\selenium\selenium-firefox-driver\3.141.59\selenium-firefox-driver-3.141.59.jar;C:\Users\dhivya\.m2\repository\org\seleniumhq\selenium\selenium-ie-driver\3.141.59\selenium-ie-driver-3.141.59.jar;C:\Users\dhivya\.m2\repository\org\seleniumhq\selenium\selenium-opera-driver\3.141.59\selenium-opera-driver-3.141.59.jar;C:\Users\dhivya\.m2\repository\org\seleniumhq\selenium\selenium-remote-driver\3.141.59\selenium-remote-driver-3.141.59.jar;C:\Users\dhivya\.m2\repository\org\seleniumhq\selenium\selenium-safari-driver\3.141.59\selenium-safari-driver-3.141.59.jar;C:\Users\dhivya\.m2\repository\org\seleniumhq\selenium\selenium-support\3.141.59\selenium-support-3.141.59.jar;C:\Users\dhivya\.m2\repository\net\bytebuddy\byte-buddy\1.8.15\byte-buddy-1.8.15.jar;C:\Users\dhivya\.m2\repository\org\apache\commons\commons-exec\1.3\commons-exec-1.3.jar;C:\Users\dhivya\.m2\repository\com\google\guava\guava\25.0-jre\guava-25.0-jre.jar;C:\Users\dhivya\.m2\repository\com\google\code\findbugs\jsr305\1.3.9\jsr305-1.3.9.jar;C:\Users\dhivya\.m2\repository\org\checkerframework\checker-compat-qual\2.0.0\checker-compat-qual-2.0.0.jar;C:\Users\dhivya\.m2\repository\com\google\errorprone\error_prone_annotations\2.1.3\error_prone_annotations-2.1.3.jar;C:\Users\dhivya\.m2\repository\com\google\j2objc\j2objc-annotations\1.1\j2objc-annotations-1.1.jar;C:\Users\dhivya\.m2\repository\org\codehaus\mojo\animal-sniffer-annotations\1.14\animal-sniffer-annotations-1.14.jar;C:\Users\dhivya\.m2\repository\com\squareup\okhttp3\okhttp\3.11.0\okhttp-3.11.0.jar;C:\Users\dhivya\.m2\repository\com\squareup\okio\okio\1.14.0\okio-1.14.0.jar;C:\Users\dhivya\.m2\repository\org\testng\testng\6.9.10\testng-6.9.10.jar;C:\Users\dhivya\.m2\repository\com\beust\jcommander\1.48\jcommander-1.48.jar;C:\Users\dhivya\.m2\repository\org\beanshell\bsh\2.0b4\bsh-2.0b4.jar;C:\Users\dhivya\.m2\repository\org\apache\logging\log4j\log4j-api\2.11.1\log4j-api-2.11.1.jar;C:\Users\dhivya\.m2\repository\org\apache\logging\log4j\log4j-core\2.11.1\log4j-core-2.11.1.jar;C:\Users\dhivya\.m2\repository\commons-io\commons-io\2.4\commons-io-2.4.jar;C:\Users\dhivya\.m2\repository\com\aventstack\extentreports\4.0.0\extentreports-4.0.0.jar;C:\Users\dhivya\.m2\repository\org\freemarker\freemarker\2.3.23\freemarker-2.3.23.jar;C:\Users\dhivya\.m2\repository\org\mongodb\mongodb-driver\3.3.0\mongodb-driver-3.3.0.jar;C:\Users\dhivya\.m2\repository\org\mongodb\mongodb-driver-core\3.3.0\mongodb-driver-core-3.3.0.jar;C:\Users\dhivya\.m2\repository\org\mongodb\bson\3.3.0\bson-3.3.0.jar;C:\Users\dhivya\.m2\repository\org\apache\httpcomponents\httpclient\4.5.2\httpclient-4.5.2.jar;C:\Users\dhivya\.m2\repository\org\apache\httpcomponents\httpcore\4.4.4\httpcore-4.4.4.jar;C:\Users\dhivya\.m2\repository\commons-logging\commons-logging\1.2\commons-logging-1.2.jar;C:\Users\dhivya\.m2\repository\commons-codec\commons-codec\1.9\commons-codec-1.9.jar;C:\Users\dhivya\.m2\repository\org\apache\httpcomponents\httpmime\4.5.2\httpmime-4.5.2.jar;C:\Users\dhivya\.m2\repository\com\google\code\gson\gson\2.8.5\gson-2.8.5.jar;C:\Users\dhivya\.m2\repository\io\github\bonigarcia\webdrivermanager\3.4.0\webdrivermanager-3.4.0.jar;C:\Users\dhivya\.m2\repository\org\slf4j\slf4j-api\1.7.25\slf4j-api-1.7.25.jar;C:\Users\dhivya\.m2\repository\org\apache\commons\commons-lang3\3.8.1\commons-lang3-3.8.1.jar;C:\Users\dhivya\.m2\repository\org\rauschig\jarchivelib\1.0.0\jarchivelib-1.0.0.jar;C:\Users\dhivya\.m2\repository\org\apache\commons\commons-compress\1.18\commons-compress-1.18.jar;C:\Users\dhivya\.m2\repository\org\jsoup\jsoup\1.11.3\jsoup-1.11.3.jar;"/>
    <property name="sun.cpu.endian" value="little"/>
    <property name="user.home" value="C:\Users\dhivya"/>
    <property name="user.language" value="en"/>
    <property name="java.specification.vendor" value="Oracle Corporation"/>
    <property name="java.home" value="C:\Program Files\Java\jdk-9.0.4"/>
    <property name="file.separator" value="\"/>
    <property name="basedir" value="C:\shravan\seleniumProjects\myseleniumframeworkbuild1"/>
    <property name="java.vm.compressedOopsMode" value="Zero based"/>
    <property name="line.separator" value="&#10;"/>
    <property name="java.vm.specification.vendor" value="Oracle Corporation"/>
    <property name="java.specification.name" value="Java Platform API Specification"/>
    <property name="java.awt.graphicsenv" value="sun.awt.Win32GraphicsEnvironment"/>
    <property name="surefire.real.class.path" value="C:\Users\dhivya\AppData\Local\Temp\surefire11109842027954259611\surefirebooter2912213848786135653.jar"/>
    <property name="user.script" value=""/>
    <property name="sun.management.compiler" value="HotSpot 64-Bit Tiered Compilers"/>
    <property name="java.runtime.version" value="9.0.4+11"/>
    <property name="user.name" value="dhivya"/>
    <property name="path.separator" value=";"/>
    <property name="os.version" value="10.0"/>
    <property name="java.runtime.name" value="Java(TM) SE Runtime Environment"/>
    <property name="file.encoding" value="Cp1252"/>
    <property name="java.vm.name" value="Java HotSpot(TM) 64-Bit Server VM"/>
    <property name="localRepository" value="C:\Users\dhivya\.m2\repository"/>
    <property name="java.vendor.url.bug" value="http://bugreport.java.com/bugreport/"/>
    <property name="java.io.tmpdir" value="C:\Users\dhivya\AppData\Local\Temp\"/>
    <property name="java.version" value="9.0.4"/>
    <property name="user.dir" value="C:\shravan\seleniumProjects\myseleniumframeworkbuild1"/>
    <property name="os.arch" value="amd64"/>
    <property name="java.vm.specification.name" value="Java Virtual Machine Specification"/>
    <property name="java.awt.printerjob" value="sun.awt.windows.WPrinterJob"/>
    <property name="sun.os.patch.level" value=""/>
    <property name="java.library.path" value="C:\Program Files\Java\jdk-9.0.4\bin;C:\WINDOWS\Sun\Java\bin;C:\WINDOWS\system32;C:\WINDOWS;C:\ProgramData\Anaconda3;C:\ProgramData\Anaconda3\Library\mingw-w64\bin;C:\ProgramData\Anaconda3\Library\usr\bin;C:\ProgramData\Anaconda3\Library\bin;C:\ProgramData\Anaconda3\Scripts;C:\Program Files (x86)\Intel\iCLS Client\;C:\ProgramData\Oracle\Java\javapath;C:\Program Files\Intel\iCLS Client\;C:\WINDOWS\system32;C:\WINDOWS;C:\WINDOWS\System32\Wbem;C:\WINDOWS\System32\WindowsPowerShell\v1.0\;C:\WINDOWS\System32\OpenSSH\;C:\Selenium\apache-maven-3.5.3-bin\apache-maven-3.5.3\bin;C:\Program Files\Git\cmd;C:\Program Files (x86)\Intel\Intel(R) Management Engine Components\DAL;C:\Program Files\Intel\Intel(R) Management Engine Components\DAL;C:\Program Files (x86)\Intel\Intel(R) Management Engine Components\IPT;C:\Program Files\Intel\Intel(R) Management Engine Components\IPT;C:\Program Files\Microsoft VS Code\bin;C:\Program Files\nodejs\;C:\Program Files\Java\jdk-9.0.4\bin;C:\Users\dhivya\AppData\Local\Microsoft\WindowsApps;C:\Users\dhivya\AppData\Roaming\npm;."/>
    <property name="java.vm.info" value="mixed mode"/>
    <property name="java.vendor" value="Oracle Corporation"/>
    <property name="java.vm.version" value="9.0.4+11"/>
    <property name="sun.io.unicode.encoding" value="UnicodeLittle"/>
    <property name="java.class.version" value="53.0"/>
  </properties>
  <testcase name="ValidateNavBar" classname="Academy.ValidateNavBar" time="10.041">
    <failure message="no such element: Unable to locate element: {&quot;method&quot;:&quot;xpath&quot;,&quot;selector&quot;:&quot;//div[contains (@class,&apos;navbar&apos;)]&quot;}&#10;  (Session info: chrome=72.0.3626.121)&#10;  (Driver info: chromedriver=2.46.628402 (536cd7adbad73a3783fdc2cab92ab2ba7ec361e1),platform=Windows NT 10.0.17134 x86_64) (WARNING: The server did not provide any stacktrace information)&#10;Command duration or timeout: 0 milliseconds&#10;For documentation on this error, please visit: https://www.seleniumhq.org/exceptions/no_such_element.html&#10;Build info: version: &apos;3.141.59&apos;, revision: &apos;e82be7d358&apos;, time: &apos;2018-11-14T08:17:03&apos;&#10;System info: host: &apos;DESKTOP-0NP3OF0&apos;, ip: &apos;192.168.0.106&apos;, os.name: &apos;Windows 10&apos;, os.arch: &apos;amd64&apos;, os.version: &apos;10.0&apos;, java.version: &apos;9.0.4&apos;&#10;Driver info: org.openqa.selenium.chrome.ChromeDriver&#10;Capabilities {acceptInsecureCerts: false, acceptSslCerts: false, applicationCacheEnabled: false, browserConnectionEnabled: false, browserName: chrome, chrome: {chromedriverVersion: 2.46.628402 (536cd7adbad73a..., userDataDir: C:\Users\dhivya\AppData\Loc...}, cssSelectorsEnabled: true, databaseEnabled: false, goog:chromeOptions: {debuggerAddress: localhost:52324}, handlesAlerts: true, hasTouchScreen: false, javascriptEnabled: true, locationContextEnabled: true, mobileEmulationEnabled: false, nativeEvents: true, networkConnectionEnabled: false, pageLoadStrategy: normal, platform: XP, platformName: XP, proxy: Proxy(), rotatable: false, setWindowRect: true, strictFileInteractability: false, takesHeapSnapshot: true, takesScreenshot: true, timeouts: {implicit: 0, pageLoad: 300000, script: 30000}, unexpectedAlertBehaviour: ignore, unhandledPromptBehavior: ignore, version: 72.0.3626.121, webStorageEnabled: true}&#10;Session ID: d47416459cd089f4c78a014f533631ac&#10;*** Element info: {Using=xpath, value=//div[contains (@class,&apos;navbar&apos;)]}" type="org.openqa.selenium.NoSuchElementException">org.openqa.selenium.NoSuchElementException: 
no such element: Unable to locate element: {"method":"xpath","selector":"//div[contains (@class,'navbar')]"}
  (Session info: chrome=72.0.3626.121)
  (Driver info: chromedriver=2.46.628402 (536cd7adbad73a3783fdc2cab92ab2ba7ec361e1),platform=Windows NT 10.0.17134 x86_64) (WARNING: The server did not provide any stacktrace information)
Command duration or timeout: 0 milliseconds
For documentation on this error, please visit: https://www.seleniumhq.org/exceptions/no_such_element.html
Build info: version: '3.141.59', revision: 'e82be7d358', time: '2018-11-14T08:17:03'
System info: host: 'DESKTOP-0NP3OF0', ip: '192.168.0.106', os.name: 'Windows 10', os.arch: 'amd64', os.version: '10.0', java.version: '9.0.4'
Driver info: org.openqa.selenium.chrome.ChromeDriver
Capabilities {acceptInsecureCerts: false, acceptSslCerts: false, applicationCacheEnabled: false, browserConnectionEnabled: false, browserName: chrome, chrome: {chromedriverVersion: 2.46.628402 (536cd7adbad73a..., userDataDir: C:\Users\dhivya\AppData\Loc...}, cssSelectorsEnabled: true, databaseEnabled: false, goog:chromeOptions: {debuggerAddress: localhost:52324}, handlesAlerts: true, hasTouchScreen: false, javascriptEnabled: true, locationContextEnabled: true, mobileEmulationEnabled: false, nativeEvents: true, networkConnectionEnabled: false, pageLoadStrategy: normal, platform: XP, platformName: XP, proxy: Proxy(), rotatable: false, setWindowRect: true, strictFileInteractability: false, takesHeapSnapshot: true, takesScreenshot: true, timeouts: {implicit: 0, pageLoad: 300000, script: 30000}, unexpectedAlertBehaviour: ignore, unhandledPromptBehavior: ignore, version: 72.0.3626.121, webStorageEnabled: true}
Session ID: d47416459cd089f4c78a014f533631ac
*** Element info: {Using=xpath, value=//div[contains (@class,'navbar')]}
	at Academy.ValidateNavBar.ValidateNavBar(ValidateNavBar.java:45)
</failure>
    <system-out><![CDATA[23:27:27.552 [main] DEBUG resources.base - Entry : Method - initialize ExtentTest
23:27:27.557 [main] DEBUG resources.base - system pathC:\shravan\seleniumProjects\myseleniumframeworkbuild1
23:27:27.580 [main] DEBUG resources.base - extHtmlReporter Object created
23:27:27.690 [main] DEBUG resources.base - extHtmlReporter Object created
23:27:27.690 [main] DEBUG resources.base - Exit : Method - initialize ExtentTest
23:27:27.693 [main] INFO  Academy.ValidateNavBar - ********start of ValidateNavBar test 1 **********
23:27:27.693 [main] DEBUG resources.base - system path C:\shravan\seleniumProjects\myseleniumframeworkbuild1\src\main\java\resources\data.properties
browser Name: chrome
23:27:32.304 [main] DEBUG Academy.ValidateNavBar - driver initialized
23:27:37.178 [main] DEBUG Academy.ValidateNavBar - Url launched successfully
23:27:37.198 [main] DEBUG Academy.ValidateNavBar - landing page obj created
]]></system-out>
    <system-err><![CDATA[SLF4J: Failed to load class "org.slf4j.impl.StaticLoggerBinder".
SLF4J: Defaulting to no-operation (NOP) logger implementation
SLF4J: See http://www.slf4j.org/codes.html#StaticLoggerBinder for further details.
Starting ChromeDriver 2.46.628402 (536cd7adbad73a3783fdc2cab92ab2ba7ec361e1) on port 23649
Only local connections are allowed.
Please protect ports used by ChromeDriver and related test frameworks to prevent access by malicious code.
Mar 27, 2019 11:27:32 PM org.openqa.selenium.remote.ProtocolHandshake createSession
INFO: Detected dialect: OSS
]]></system-err>
  </testcase>
  <testcase name="ValidateLogin" classname="Academy.HomePage" time="10.018">
    <failure message="no such element: Unable to locate element: {&quot;method&quot;:&quot;css selector&quot;,&quot;selector&quot;:&quot;a[href*=&apos;sign_in&apos;]&quot;}&#10;  (Session info: chrome=72.0.3626.121)&#10;  (Driver info: chromedriver=2.46.628402 (536cd7adbad73a3783fdc2cab92ab2ba7ec361e1),platform=Windows NT 10.0.17134 x86_64) (WARNING: The server did not provide any stacktrace information)&#10;Command duration or timeout: 0 milliseconds&#10;For documentation on this error, please visit: https://www.seleniumhq.org/exceptions/no_such_element.html&#10;Build info: version: &apos;3.141.59&apos;, revision: &apos;e82be7d358&apos;, time: &apos;2018-11-14T08:17:03&apos;&#10;System info: host: &apos;DESKTOP-0NP3OF0&apos;, ip: &apos;192.168.0.106&apos;, os.name: &apos;Windows 10&apos;, os.arch: &apos;amd64&apos;, os.version: &apos;10.0&apos;, java.version: &apos;9.0.4&apos;&#10;Driver info: org.openqa.selenium.chrome.ChromeDriver&#10;Capabilities {acceptInsecureCerts: false, acceptSslCerts: false, applicationCacheEnabled: false, browserConnectionEnabled: false, browserName: chrome, chrome: {chromedriverVersion: 2.46.628402 (536cd7adbad73a..., userDataDir: C:\Users\dhivya\AppData\Loc...}, cssSelectorsEnabled: true, databaseEnabled: false, goog:chromeOptions: {debuggerAddress: localhost:52366}, handlesAlerts: true, hasTouchScreen: false, javascriptEnabled: true, locationContextEnabled: true, mobileEmulationEnabled: false, nativeEvents: true, networkConnectionEnabled: false, pageLoadStrategy: normal, platform: XP, platformName: XP, proxy: Proxy(), rotatable: false, setWindowRect: true, strictFileInteractability: false, takesHeapSnapshot: true, takesScreenshot: true, timeouts: {implicit: 0, pageLoad: 300000, script: 30000}, unexpectedAlertBehaviour: ignore, unhandledPromptBehavior: ignore, version: 72.0.3626.121, webStorageEnabled: true}&#10;Session ID: 13040701416b8a99235ee4d252bb2219&#10;*** Element info: {Using=css selector, value=a[href*=&apos;sign_in&apos;]}" type="org.openqa.selenium.NoSuchElementException">org.openqa.selenium.NoSuchElementException: 
no such element: Unable to locate element: {"method":"css selector","selector":"a[href*='sign_in']"}
  (Session info: chrome=72.0.3626.121)
  (Driver info: chromedriver=2.46.628402 (536cd7adbad73a3783fdc2cab92ab2ba7ec361e1),platform=Windows NT 10.0.17134 x86_64) (WARNING: The server did not provide any stacktrace information)
Command duration or timeout: 0 milliseconds
For documentation on this error, please visit: https://www.seleniumhq.org/exceptions/no_such_element.html
Build info: version: '3.141.59', revision: 'e82be7d358', time: '2018-11-14T08:17:03'
System info: host: 'DESKTOP-0NP3OF0', ip: '192.168.0.106', os.name: 'Windows 10', os.arch: 'amd64', os.version: '10.0', java.version: '9.0.4'
Driver info: org.openqa.selenium.chrome.ChromeDriver
Capabilities {acceptInsecureCerts: false, acceptSslCerts: false, applicationCacheEnabled: false, browserConnectionEnabled: false, browserName: chrome, chrome: {chromedriverVersion: 2.46.628402 (536cd7adbad73a..., userDataDir: C:\Users\dhivya\AppData\Loc...}, cssSelectorsEnabled: true, databaseEnabled: false, goog:chromeOptions: {debuggerAddress: localhost:52366}, handlesAlerts: true, hasTouchScreen: false, javascriptEnabled: true, locationContextEnabled: true, mobileEmulationEnabled: false, nativeEvents: true, networkConnectionEnabled: false, pageLoadStrategy: normal, platform: XP, platformName: XP, proxy: Proxy(), rotatable: false, setWindowRect: true, strictFileInteractability: false, takesHeapSnapshot: true, takesScreenshot: true, timeouts: {implicit: 0, pageLoad: 300000, script: 30000}, unexpectedAlertBehaviour: ignore, unhandledPromptBehavior: ignore, version: 72.0.3626.121, webStorageEnabled: true}
Session ID: 13040701416b8a99235ee4d252bb2219
*** Element info: {Using=css selector, value=a[href*='sign_in']}
	at Academy.HomePage.ValidateLogin(HomePage.java:74)
</failure>
    <system-out><![CDATA[23:27:47.229 [main] DEBUG resources.listeners - Enter onTestFailure Method
23:27:47.843 [main] DEBUG resources.listeners - Exit onTestFailure Method
23:27:47.988 [main] DEBUG Academy.ValidateNavBar - browser closed
23:27:47.988 [main] DEBUG Academy.ValidateNavBar - driver made null
23:27:47.989 [main] INFO  Academy.ValidateNavBar - ********end of ValidateNavBar test 1**********
Count : 5
print test datamap : I : 2,  value: {Zip=16801, Address=332 Innovation Boulevard, Website=http://hvhd.net/Domain/2222, City=State College, Image=/cms/lib/TC00000006/centricity/Domain/4866/Clip1.jpg, System ID=569, School=Happy Valley Elementary School, Type=Elementary, Active=TRUE, Phone=814-555-1212, State=PA, Principal=Mr. Jenkins, Other=Mr. Jenkins Office Hours:  }
print test datamap :[{Zip=16801, Address=332 Innovation Boulevard, Website=http://hvhd.net/Domain/2222, City=State College, Image=/cms/lib/TC00000006/centricity/Domain/4866/Clip1.jpg, System ID=569, School=Happy Valley Elementary School, Type=Elementary, Active=TRUE, Phone=814-555-1212, State=PA, Principal=Mr. Jenkins, Other=Mr. Jenkins Office Hours:  }]
print test datamap : I : 3,  value: {Zip=16802, Address=328 Innovation Boulevard, Website=http://hvhd.net/Domain/1111, City=State College, Image=/cms/lib/TC00000006/centricity/Domain/4866/SWDocCoverLogo.jpg, System ID=570, School=Happy Valley High School, Type=High School, Active=TRUE, Phone=814-555-1212, State=PA, Principal=Mr. Eric Sparks, Other=Mr. Sparks Office Hours:  }
print test datamap :[{Zip=16801, Address=332 Innovation Boulevard, Website=http://hvhd.net/Domain/2222, City=State College, Image=/cms/lib/TC00000006/centricity/Domain/4866/Clip1.jpg, System ID=569, School=Happy Valley Elementary School, Type=Elementary, Active=TRUE, Phone=814-555-1212, State=PA, Principal=Mr. Jenkins, Other=Mr. Jenkins Office Hours:  }, {Zip=16802, Address=328 Innovation Boulevard, Website=http://hvhd.net/Domain/1111, City=State College, Image=/cms/lib/TC00000006/centricity/Domain/4866/SWDocCoverLogo.jpg, System ID=570, School=Happy Valley High School, Type=High School, Active=TRUE, Phone=814-555-1212, State=PA, Principal=Mr. Eric Sparks, Other=Mr. Sparks Office Hours:  }]
print test datamap : I : 4,  value: {Zip=16803, Address=330 Innovation Boulevard, Website=http://hvhd.net/Domain/3333, City=State College, Image=/cms/lib/TC00000006/centricity/Domain/4866/a_bug_icon.png, System ID=571, School=Happy Valley Middle School, Type=Middle School, Active=TRUE, Phone=814-555-1212, State=PA, Principal=Mrs. Spegle, Other=Mrs. Spegle Office Hours: }
print test datamap :[{Zip=16801, Address=332 Innovation Boulevard, Website=http://hvhd.net/Domain/2222, City=State College, Image=/cms/lib/TC00000006/centricity/Domain/4866/Clip1.jpg, System ID=569, School=Happy Valley Elementary School, Type=Elementary, Active=TRUE, Phone=814-555-1212, State=PA, Principal=Mr. Jenkins, Other=Mr. Jenkins Office Hours:  }, {Zip=16802, Address=328 Innovation Boulevard, Website=http://hvhd.net/Domain/1111, City=State College, Image=/cms/lib/TC00000006/centricity/Domain/4866/SWDocCoverLogo.jpg, System ID=570, School=Happy Valley High School, Type=High School, Active=TRUE, Phone=814-555-1212, State=PA, Principal=Mr. Eric Sparks, Other=Mr. Sparks Office Hours:  }, {Zip=16803, Address=330 Innovation Boulevard, Website=http://hvhd.net/Domain/3333, City=State College, Image=/cms/lib/TC00000006/centricity/Domain/4866/a_bug_icon.png, System ID=571, School=Happy Valley Middle School, Type=Middle School, Active=TRUE, Phone=814-555-1212, State=PA, Principal=Mrs. Spegle, Other=Mrs. Spegle Office Hours: }]
print test datamap : I : 5,  value: {Zip=16804, Address=334 Innovation Boulevard, Website=http://hvhd.net//Domain/4444, City=State College, Image=/cms/lib/TC00000006/centricity/Domain/8774/Lion2.jpg, System ID=572, School=Happy Valley School District, Type=District Building, Active=TRUE, Phone=814-555-1212, State=PA, Principal=Mr. Jones, Other=Superintendent Jones  Office Hours:  }
print test datamap :[{Zip=16801, Address=332 Innovation Boulevard, Website=http://hvhd.net/Domain/2222, City=State College, Image=/cms/lib/TC00000006/centricity/Domain/4866/Clip1.jpg, System ID=569, School=Happy Valley Elementary School, Type=Elementary, Active=TRUE, Phone=814-555-1212, State=PA, Principal=Mr. Jenkins, Other=Mr. Jenkins Office Hours:  }, {Zip=16802, Address=328 Innovation Boulevard, Website=http://hvhd.net/Domain/1111, City=State College, Image=/cms/lib/TC00000006/centricity/Domain/4866/SWDocCoverLogo.jpg, System ID=570, School=Happy Valley High School, Type=High School, Active=TRUE, Phone=814-555-1212, State=PA, Principal=Mr. Eric Sparks, Other=Mr. Sparks Office Hours:  }, {Zip=16803, Address=330 Innovation Boulevard, Website=http://hvhd.net/Domain/3333, City=State College, Image=/cms/lib/TC00000006/centricity/Domain/4866/a_bug_icon.png, System ID=571, School=Happy Valley Middle School, Type=Middle School, Active=TRUE, Phone=814-555-1212, State=PA, Principal=Mrs. Spegle, Other=Mrs. Spegle Office Hours: }, {Zip=16804, Address=334 Innovation Boulevard, Website=http://hvhd.net//Domain/4444, City=State College, Image=/cms/lib/TC00000006/centricity/Domain/8774/Lion2.jpg, System ID=572, School=Happy Valley School District, Type=District Building, Active=TRUE, Phone=814-555-1212, State=PA, Principal=Mr. Jones, Other=Superintendent Jones  Office Hours:  }]
print test datamap :[{Zip=16801, Address=332 Innovation Boulevard, Website=http://hvhd.net/Domain/2222, City=State College, Image=/cms/lib/TC00000006/centricity/Domain/4866/Clip1.jpg, System ID=569, School=Happy Valley Elementary School, Type=Elementary, Active=TRUE, Phone=814-555-1212, State=PA, Principal=Mr. Jenkins, Other=Mr. Jenkins Office Hours:  }, {Zip=16802, Address=328 Innovation Boulevard, Website=http://hvhd.net/Domain/1111, City=State College, Image=/cms/lib/TC00000006/centricity/Domain/4866/SWDocCoverLogo.jpg, System ID=570, School=Happy Valley High School, Type=High School, Active=TRUE, Phone=814-555-1212, State=PA, Principal=Mr. Eric Sparks, Other=Mr. Sparks Office Hours:  }, {Zip=16803, Address=330 Innovation Boulevard, Website=http://hvhd.net/Domain/3333, City=State College, Image=/cms/lib/TC00000006/centricity/Domain/4866/a_bug_icon.png, System ID=571, School=Happy Valley Middle School, Type=Middle School, Active=TRUE, Phone=814-555-1212, State=PA, Principal=Mrs. Spegle, Other=Mrs. Spegle Office Hours: }, {Zip=16804, Address=334 Innovation Boulevard, Website=http://hvhd.net//Domain/4444, City=State College, Image=/cms/lib/TC00000006/centricity/Domain/8774/Lion2.jpg, System ID=572, School=Happy Valley School District, Type=District Building, Active=TRUE, Phone=814-555-1212, State=PA, Principal=Mr. Jones, Other=Superintendent Jones  Office Hours:  }]
Count : 5
J value :0{Zip=16801, Address=332 Innovation Boulevard, Website=http://hvhd.net/Domain/2222, City=State College, Image=/cms/lib/TC00000006/centricity/Domain/4866/Clip1.jpg, System ID=569, School=Happy Valley Elementary School, Type=Elementary, Active=TRUE, Phone=814-555-1212, State=PA, Principal=Mr. Jenkins, Other=Mr. Jenkins Office Hours:  }
J value :1{Zip=16802, Address=328 Innovation Boulevard, Website=http://hvhd.net/Domain/1111, City=State College, Image=/cms/lib/TC00000006/centricity/Domain/4866/SWDocCoverLogo.jpg, System ID=570, School=Happy Valley High School, Type=High School, Active=TRUE, Phone=814-555-1212, State=PA, Principal=Mr. Eric Sparks, Other=Mr. Sparks Office Hours:  }
J value :2{Zip=16803, Address=330 Innovation Boulevard, Website=http://hvhd.net/Domain/3333, City=State College, Image=/cms/lib/TC00000006/centricity/Domain/4866/a_bug_icon.png, System ID=571, School=Happy Valley Middle School, Type=Middle School, Active=TRUE, Phone=814-555-1212, State=PA, Principal=Mrs. Spegle, Other=Mrs. Spegle Office Hours: }
J value :3{Zip=16804, Address=334 Innovation Boulevard, Website=http://hvhd.net//Domain/4444, City=State College, Image=/cms/lib/TC00000006/centricity/Domain/8774/Lion2.jpg, System ID=572, School=Happy Valley School District, Type=District Building, Active=TRUE, Phone=814-555-1212, State=PA, Principal=Mr. Jones, Other=Superintendent Jones  Office Hours:  }
J value :0{Zip=16801, Address=332 Innovation Boulevard, Website=http://hvhd.net/Domain/2222, City=State College, Image=/cms/lib/TC00000006/centricity/Domain/4866/Clip1.jpg, System ID=569, School=Happy Valley Elementary School, Type=Elementary, Active=TRUE, Phone=814-555-1212, State=PA, Principal=Mr. Jenkins, Other=Mr. Jenkins Office Hours:  }
J value :1{Zip=16802, Address=328 Innovation Boulevard, Website=http://hvhd.net/Domain/1111, City=State College, Image=/cms/lib/TC00000006/centricity/Domain/4866/SWDocCoverLogo.jpg, System ID=570, School=Happy Valley High School, Type=High School, Active=TRUE, Phone=814-555-1212, State=PA, Principal=Mr. Eric Sparks, Other=Mr. Sparks Office Hours:  }
J value :2{Zip=16803, Address=330 Innovation Boulevard, Website=http://hvhd.net/Domain/3333, City=State College, Image=/cms/lib/TC00000006/centricity/Domain/4866/a_bug_icon.png, System ID=571, School=Happy Valley Middle School, Type=Middle School, Active=TRUE, Phone=814-555-1212, State=PA, Principal=Mrs. Spegle, Other=Mrs. Spegle Office Hours: }
J value :3{Zip=16804, Address=334 Innovation Boulevard, Website=http://hvhd.net//Domain/4444, City=State College, Image=/cms/lib/TC00000006/centricity/Domain/8774/Lion2.jpg, System ID=572, School=Happy Valley School District, Type=District Building, Active=TRUE, Phone=814-555-1212, State=PA, Principal=Mr. Jones, Other=Superintendent Jones  Office Hours:  }
23:27:48.046 [main] INFO  Academy.HomePage - ********start of HomePage test 2**********
23:27:48.047 [main] DEBUG resources.base - system path C:\shravan\seleniumProjects\myseleniumframeworkbuild1\src\main\java\resources\data.properties
browser Name: chrome
23:27:54.951 [main] DEBUG Academy.HomePage - ******* Start ******Itereation for systemID: 569**********
23:27:54.951 [main] DEBUG Academy.HomePage - System ID : 569
23:27:54.951 [main] DEBUG Academy.HomePage - School : Happy Valley Elementary School
23:27:54.951 [main] DEBUG Academy.HomePage - School : 814-555-1212
23:27:54.951 [main] DEBUG Academy.HomePage - School : 332 Innovation Boulevard
23:27:54.951 [main] DEBUG Academy.HomePage - School : State College
23:27:54.952 [main] DEBUG Academy.HomePage - School : PA
23:27:54.952 [main] DEBUG Academy.HomePage - School : 16801
23:27:54.952 [main] DEBUG Academy.HomePage - School : Elementary
23:27:54.952 [main] DEBUG Academy.HomePage - School : Mr. Jenkins
23:27:54.952 [main] DEBUG Academy.HomePage - School : http://hvhd.net/Domain/2222
23:27:54.952 [main] DEBUG Academy.HomePage - School : Mr. Jenkins Office Hours:  
23:27:54.952 [main] DEBUG Academy.HomePage - School : /cms/lib/TC00000006/centricity/Domain/4866/Clip1.jpg
23:27:54.952 [main] DEBUG Academy.HomePage - School : TRUE
23:27:54.953 [main] DEBUG Academy.HomePage - ******* End ******Itereation for systemID: 569**********
]]></system-out>
    <system-err><![CDATA[Starting ChromeDriver 2.46.628402 (536cd7adbad73a3783fdc2cab92ab2ba7ec361e1) on port 38516
Only local connections are allowed.
Please protect ports used by ChromeDriver and related test frameworks to prevent access by malicious code.
Mar 27, 2019 11:27:50 PM org.openqa.selenium.remote.ProtocolHandshake createSession
INFO: Detected dialect: OSS
]]></system-err>
  </testcase>
  <testcase name="ValidateLogin" classname="Academy.HomePage" time="10.021">
    <failure message="no such element: Unable to locate element: {&quot;method&quot;:&quot;css selector&quot;,&quot;selector&quot;:&quot;a[href*=&apos;sign_in&apos;]&quot;}&#10;  (Session info: chrome=72.0.3626.121)&#10;  (Driver info: chromedriver=2.46.628402 (536cd7adbad73a3783fdc2cab92ab2ba7ec361e1),platform=Windows NT 10.0.17134 x86_64) (WARNING: The server did not provide any stacktrace information)&#10;Command duration or timeout: 0 milliseconds&#10;For documentation on this error, please visit: https://www.seleniumhq.org/exceptions/no_such_element.html&#10;Build info: version: &apos;3.141.59&apos;, revision: &apos;e82be7d358&apos;, time: &apos;2018-11-14T08:17:03&apos;&#10;System info: host: &apos;DESKTOP-0NP3OF0&apos;, ip: &apos;192.168.0.106&apos;, os.name: &apos;Windows 10&apos;, os.arch: &apos;amd64&apos;, os.version: &apos;10.0&apos;, java.version: &apos;9.0.4&apos;&#10;Driver info: org.openqa.selenium.chrome.ChromeDriver&#10;Capabilities {acceptInsecureCerts: false, acceptSslCerts: false, applicationCacheEnabled: false, browserConnectionEnabled: false, browserName: chrome, chrome: {chromedriverVersion: 2.46.628402 (536cd7adbad73a..., userDataDir: C:\Users\dhivya\AppData\Loc...}, cssSelectorsEnabled: true, databaseEnabled: false, goog:chromeOptions: {debuggerAddress: localhost:52409}, handlesAlerts: true, hasTouchScreen: false, javascriptEnabled: true, locationContextEnabled: true, mobileEmulationEnabled: false, nativeEvents: true, networkConnectionEnabled: false, pageLoadStrategy: normal, platform: XP, platformName: XP, proxy: Proxy(), rotatable: false, setWindowRect: true, strictFileInteractability: false, takesHeapSnapshot: true, takesScreenshot: true, timeouts: {implicit: 0, pageLoad: 300000, script: 30000}, unexpectedAlertBehaviour: ignore, unhandledPromptBehavior: ignore, version: 72.0.3626.121, webStorageEnabled: true}&#10;Session ID: de2f082005e973ec86a1fed1b6ba0234&#10;*** Element info: {Using=css selector, value=a[href*=&apos;sign_in&apos;]}" type="org.openqa.selenium.NoSuchElementException">org.openqa.selenium.NoSuchElementException: 
no such element: Unable to locate element: {"method":"css selector","selector":"a[href*='sign_in']"}
  (Session info: chrome=72.0.3626.121)
  (Driver info: chromedriver=2.46.628402 (536cd7adbad73a3783fdc2cab92ab2ba7ec361e1),platform=Windows NT 10.0.17134 x86_64) (WARNING: The server did not provide any stacktrace information)
Command duration or timeout: 0 milliseconds
For documentation on this error, please visit: https://www.seleniumhq.org/exceptions/no_such_element.html
Build info: version: '3.141.59', revision: 'e82be7d358', time: '2018-11-14T08:17:03'
System info: host: 'DESKTOP-0NP3OF0', ip: '192.168.0.106', os.name: 'Windows 10', os.arch: 'amd64', os.version: '10.0', java.version: '9.0.4'
Driver info: org.openqa.selenium.chrome.ChromeDriver
Capabilities {acceptInsecureCerts: false, acceptSslCerts: false, applicationCacheEnabled: false, browserConnectionEnabled: false, browserName: chrome, chrome: {chromedriverVersion: 2.46.628402 (536cd7adbad73a..., userDataDir: C:\Users\dhivya\AppData\Loc...}, cssSelectorsEnabled: true, databaseEnabled: false, goog:chromeOptions: {debuggerAddress: localhost:52409}, handlesAlerts: true, hasTouchScreen: false, javascriptEnabled: true, locationContextEnabled: true, mobileEmulationEnabled: false, nativeEvents: true, networkConnectionEnabled: false, pageLoadStrategy: normal, platform: XP, platformName: XP, proxy: Proxy(), rotatable: false, setWindowRect: true, strictFileInteractability: false, takesHeapSnapshot: true, takesScreenshot: true, timeouts: {implicit: 0, pageLoad: 300000, script: 30000}, unexpectedAlertBehaviour: ignore, unhandledPromptBehavior: ignore, version: 72.0.3626.121, webStorageEnabled: true}
Session ID: de2f082005e973ec86a1fed1b6ba0234
*** Element info: {Using=css selector, value=a[href*='sign_in']}
	at Academy.HomePage.ValidateLogin(HomePage.java:74)
</failure>
    <system-out><![CDATA[23:28:04.965 [main] DEBUG resources.listeners - Enter onTestFailure Method
23:28:05.360 [main] DEBUG resources.listeners - Exit onTestFailure Method
23:28:05.484 [main] DEBUG Academy.HomePage - broswer closed
23:28:05.485 [main] DEBUG Academy.HomePage - driver made null
23:28:05.485 [main] INFO  Academy.HomePage - ********end of HomePage test 2**********
23:28:05.485 [main] INFO  Academy.HomePage - ********start of HomePage test 2**********
23:28:05.485 [main] DEBUG resources.base - system path C:\shravan\seleniumProjects\myseleniumframeworkbuild1\src\main\java\resources\data.properties
browser Name: chrome
23:28:11.849 [main] DEBUG Academy.HomePage - ******* Start ******Itereation for systemID: 570**********
23:28:11.849 [main] DEBUG Academy.HomePage - System ID : 570
23:28:11.849 [main] DEBUG Academy.HomePage - School : Happy Valley High School
23:28:11.850 [main] DEBUG Academy.HomePage - School : 814-555-1212
23:28:11.850 [main] DEBUG Academy.HomePage - School : 328 Innovation Boulevard
23:28:11.850 [main] DEBUG Academy.HomePage - School : State College
23:28:11.850 [main] DEBUG Academy.HomePage - School : PA
23:28:11.850 [main] DEBUG Academy.HomePage - School : 16802
23:28:11.850 [main] DEBUG Academy.HomePage - School : High School
23:28:11.850 [main] DEBUG Academy.HomePage - School : Mr. Eric Sparks
23:28:11.850 [main] DEBUG Academy.HomePage - School : http://hvhd.net/Domain/1111
23:28:11.851 [main] DEBUG Academy.HomePage - School : Mr. Sparks Office Hours:  
23:28:11.851 [main] DEBUG Academy.HomePage - School : /cms/lib/TC00000006/centricity/Domain/4866/SWDocCoverLogo.jpg
23:28:11.851 [main] DEBUG Academy.HomePage - School : TRUE
23:28:11.851 [main] DEBUG Academy.HomePage - ******* End ******Itereation for systemID: 570**********
]]></system-out>
    <system-err><![CDATA[Starting ChromeDriver 2.46.628402 (536cd7adbad73a3783fdc2cab92ab2ba7ec361e1) on port 31237
Only local connections are allowed.
Please protect ports used by ChromeDriver and related test frameworks to prevent access by malicious code.
Mar 27, 2019 11:28:09 PM org.openqa.selenium.remote.ProtocolHandshake createSession
INFO: Detected dialect: OSS
]]></system-err>
  </testcase>
  <testcase name="ValidateLogin" classname="Academy.HomePage" time="10.04">
    <failure message="no such element: Unable to locate element: {&quot;method&quot;:&quot;css selector&quot;,&quot;selector&quot;:&quot;a[href*=&apos;sign_in&apos;]&quot;}&#10;  (Session info: chrome=72.0.3626.121)&#10;  (Driver info: chromedriver=2.46.628402 (536cd7adbad73a3783fdc2cab92ab2ba7ec361e1),platform=Windows NT 10.0.17134 x86_64) (WARNING: The server did not provide any stacktrace information)&#10;Command duration or timeout: 0 milliseconds&#10;For documentation on this error, please visit: https://www.seleniumhq.org/exceptions/no_such_element.html&#10;Build info: version: &apos;3.141.59&apos;, revision: &apos;e82be7d358&apos;, time: &apos;2018-11-14T08:17:03&apos;&#10;System info: host: &apos;DESKTOP-0NP3OF0&apos;, ip: &apos;192.168.0.106&apos;, os.name: &apos;Windows 10&apos;, os.arch: &apos;amd64&apos;, os.version: &apos;10.0&apos;, java.version: &apos;9.0.4&apos;&#10;Driver info: org.openqa.selenium.chrome.ChromeDriver&#10;Capabilities {acceptInsecureCerts: false, acceptSslCerts: false, applicationCacheEnabled: false, browserConnectionEnabled: false, browserName: chrome, chrome: {chromedriverVersion: 2.46.628402 (536cd7adbad73a..., userDataDir: C:\Users\dhivya\AppData\Loc...}, cssSelectorsEnabled: true, databaseEnabled: false, goog:chromeOptions: {debuggerAddress: localhost:52452}, handlesAlerts: true, hasTouchScreen: false, javascriptEnabled: true, locationContextEnabled: true, mobileEmulationEnabled: false, nativeEvents: true, networkConnectionEnabled: false, pageLoadStrategy: normal, platform: XP, platformName: XP, proxy: Proxy(), rotatable: false, setWindowRect: true, strictFileInteractability: false, takesHeapSnapshot: true, takesScreenshot: true, timeouts: {implicit: 0, pageLoad: 300000, script: 30000}, unexpectedAlertBehaviour: ignore, unhandledPromptBehavior: ignore, version: 72.0.3626.121, webStorageEnabled: true}&#10;Session ID: c9a870e8ec5a58b034f8984bd5362bbc&#10;*** Element info: {Using=css selector, value=a[href*=&apos;sign_in&apos;]}" type="org.openqa.selenium.NoSuchElementException">org.openqa.selenium.NoSuchElementException: 
no such element: Unable to locate element: {"method":"css selector","selector":"a[href*='sign_in']"}
  (Session info: chrome=72.0.3626.121)
  (Driver info: chromedriver=2.46.628402 (536cd7adbad73a3783fdc2cab92ab2ba7ec361e1),platform=Windows NT 10.0.17134 x86_64) (WARNING: The server did not provide any stacktrace information)
Command duration or timeout: 0 milliseconds
For documentation on this error, please visit: https://www.seleniumhq.org/exceptions/no_such_element.html
Build info: version: '3.141.59', revision: 'e82be7d358', time: '2018-11-14T08:17:03'
System info: host: 'DESKTOP-0NP3OF0', ip: '192.168.0.106', os.name: 'Windows 10', os.arch: 'amd64', os.version: '10.0', java.version: '9.0.4'
Driver info: org.openqa.selenium.chrome.ChromeDriver
Capabilities {acceptInsecureCerts: false, acceptSslCerts: false, applicationCacheEnabled: false, browserConnectionEnabled: false, browserName: chrome, chrome: {chromedriverVersion: 2.46.628402 (536cd7adbad73a..., userDataDir: C:\Users\dhivya\AppData\Loc...}, cssSelectorsEnabled: true, databaseEnabled: false, goog:chromeOptions: {debuggerAddress: localhost:52452}, handlesAlerts: true, hasTouchScreen: false, javascriptEnabled: true, locationContextEnabled: true, mobileEmulationEnabled: false, nativeEvents: true, networkConnectionEnabled: false, pageLoadStrategy: normal, platform: XP, platformName: XP, proxy: Proxy(), rotatable: false, setWindowRect: true, strictFileInteractability: false, takesHeapSnapshot: true, takesScreenshot: true, timeouts: {implicit: 0, pageLoad: 300000, script: 30000}, unexpectedAlertBehaviour: ignore, unhandledPromptBehavior: ignore, version: 72.0.3626.121, webStorageEnabled: true}
Session ID: c9a870e8ec5a58b034f8984bd5362bbc
*** Element info: {Using=css selector, value=a[href*='sign_in']}
	at Academy.HomePage.ValidateLogin(HomePage.java:74)
</failure>
    <system-out><![CDATA[23:28:21.870 [main] DEBUG resources.listeners - Enter onTestFailure Method
23:28:22.223 [main] DEBUG resources.listeners - Exit onTestFailure Method
23:28:22.452 [main] DEBUG Academy.HomePage - broswer closed
23:28:22.452 [main] DEBUG Academy.HomePage - driver made null
23:28:22.453 [main] INFO  Academy.HomePage - ********end of HomePage test 2**********
23:28:22.453 [main] INFO  Academy.HomePage - ********start of HomePage test 2**********
23:28:22.453 [main] DEBUG resources.base - system path C:\shravan\seleniumProjects\myseleniumframeworkbuild1\src\main\java\resources\data.properties
browser Name: chrome
23:28:33.526 [main] DEBUG Academy.HomePage - ******* Start ******Itereation for systemID: 571**********
23:28:33.527 [main] DEBUG Academy.HomePage - System ID : 571
23:28:33.528 [main] DEBUG Academy.HomePage - School : Happy Valley Middle School
23:28:33.529 [main] DEBUG Academy.HomePage - School : 814-555-1212
23:28:33.529 [main] DEBUG Academy.HomePage - School : 330 Innovation Boulevard
23:28:33.529 [main] DEBUG Academy.HomePage - School : State College
23:28:33.530 [main] DEBUG Academy.HomePage - School : PA
23:28:33.530 [main] DEBUG Academy.HomePage - School : 16803
23:28:33.531 [main] DEBUG Academy.HomePage - School : Middle School
23:28:33.531 [main] DEBUG Academy.HomePage - School : Mrs. Spegle
23:28:33.532 [main] DEBUG Academy.HomePage - School : http://hvhd.net/Domain/3333
23:28:33.532 [main] DEBUG Academy.HomePage - School : Mrs. Spegle Office Hours: 
23:28:33.533 [main] DEBUG Academy.HomePage - School : /cms/lib/TC00000006/centricity/Domain/4866/a_bug_icon.png
23:28:33.533 [main] DEBUG Academy.HomePage - School : TRUE
23:28:33.534 [main] DEBUG Academy.HomePage - ******* End ******Itereation for systemID: 571**********
]]></system-out>
    <system-err><![CDATA[Starting ChromeDriver 2.46.628402 (536cd7adbad73a3783fdc2cab92ab2ba7ec361e1) on port 13235
Only local connections are allowed.
Please protect ports used by ChromeDriver and related test frameworks to prevent access by malicious code.
Mar 27, 2019 11:28:26 PM org.openqa.selenium.remote.ProtocolHandshake createSession
INFO: Detected dialect: OSS
]]></system-err>
  </testcase>
  <testcase name="ValidateLogin" classname="Academy.HomePage" time="10.056">
    <failure message="no such element: Unable to locate element: {&quot;method&quot;:&quot;css selector&quot;,&quot;selector&quot;:&quot;a[href*=&apos;sign_in&apos;]&quot;}&#10;  (Session info: chrome=72.0.3626.121)&#10;  (Driver info: chromedriver=2.46.628402 (536cd7adbad73a3783fdc2cab92ab2ba7ec361e1),platform=Windows NT 10.0.17134 x86_64) (WARNING: The server did not provide any stacktrace information)&#10;Command duration or timeout: 0 milliseconds&#10;For documentation on this error, please visit: https://www.seleniumhq.org/exceptions/no_such_element.html&#10;Build info: version: &apos;3.141.59&apos;, revision: &apos;e82be7d358&apos;, time: &apos;2018-11-14T08:17:03&apos;&#10;System info: host: &apos;DESKTOP-0NP3OF0&apos;, ip: &apos;192.168.0.106&apos;, os.name: &apos;Windows 10&apos;, os.arch: &apos;amd64&apos;, os.version: &apos;10.0&apos;, java.version: &apos;9.0.4&apos;&#10;Driver info: org.openqa.selenium.chrome.ChromeDriver&#10;Capabilities {acceptInsecureCerts: false, acceptSslCerts: false, applicationCacheEnabled: false, browserConnectionEnabled: false, browserName: chrome, chrome: {chromedriverVersion: 2.46.628402 (536cd7adbad73a..., userDataDir: C:\Users\dhivya\AppData\Loc...}, cssSelectorsEnabled: true, databaseEnabled: false, goog:chromeOptions: {debuggerAddress: localhost:52513}, handlesAlerts: true, hasTouchScreen: false, javascriptEnabled: true, locationContextEnabled: true, mobileEmulationEnabled: false, nativeEvents: true, networkConnectionEnabled: false, pageLoadStrategy: normal, platform: XP, platformName: XP, proxy: Proxy(), rotatable: false, setWindowRect: true, strictFileInteractability: false, takesHeapSnapshot: true, takesScreenshot: true, timeouts: {implicit: 0, pageLoad: 300000, script: 30000}, unexpectedAlertBehaviour: ignore, unhandledPromptBehavior: ignore, version: 72.0.3626.121, webStorageEnabled: true}&#10;Session ID: 0c52103d271b65e5e967a3df0d9956c3&#10;*** Element info: {Using=css selector, value=a[href*=&apos;sign_in&apos;]}" type="org.openqa.selenium.NoSuchElementException">org.openqa.selenium.NoSuchElementException: 
no such element: Unable to locate element: {"method":"css selector","selector":"a[href*='sign_in']"}
  (Session info: chrome=72.0.3626.121)
  (Driver info: chromedriver=2.46.628402 (536cd7adbad73a3783fdc2cab92ab2ba7ec361e1),platform=Windows NT 10.0.17134 x86_64) (WARNING: The server did not provide any stacktrace information)
Command duration or timeout: 0 milliseconds
For documentation on this error, please visit: https://www.seleniumhq.org/exceptions/no_such_element.html
Build info: version: '3.141.59', revision: 'e82be7d358', time: '2018-11-14T08:17:03'
System info: host: 'DESKTOP-0NP3OF0', ip: '192.168.0.106', os.name: 'Windows 10', os.arch: 'amd64', os.version: '10.0', java.version: '9.0.4'
Driver info: org.openqa.selenium.chrome.ChromeDriver
Capabilities {acceptInsecureCerts: false, acceptSslCerts: false, applicationCacheEnabled: false, browserConnectionEnabled: false, browserName: chrome, chrome: {chromedriverVersion: 2.46.628402 (536cd7adbad73a..., userDataDir: C:\Users\dhivya\AppData\Loc...}, cssSelectorsEnabled: true, databaseEnabled: false, goog:chromeOptions: {debuggerAddress: localhost:52513}, handlesAlerts: true, hasTouchScreen: false, javascriptEnabled: true, locationContextEnabled: true, mobileEmulationEnabled: false, nativeEvents: true, networkConnectionEnabled: false, pageLoadStrategy: normal, platform: XP, platformName: XP, proxy: Proxy(), rotatable: false, setWindowRect: true, strictFileInteractability: false, takesHeapSnapshot: true, takesScreenshot: true, timeouts: {implicit: 0, pageLoad: 300000, script: 30000}, unexpectedAlertBehaviour: ignore, unhandledPromptBehavior: ignore, version: 72.0.3626.121, webStorageEnabled: true}
Session ID: 0c52103d271b65e5e967a3df0d9956c3
*** Element info: {Using=css selector, value=a[href*='sign_in']}
	at Academy.HomePage.ValidateLogin(HomePage.java:74)
</failure>
    <system-out><![CDATA[23:28:43.566 [main] DEBUG resources.listeners - Enter onTestFailure Method
23:28:43.937 [main] DEBUG resources.listeners - Exit onTestFailure Method
23:28:44.042 [main] DEBUG Academy.HomePage - broswer closed
23:28:44.042 [main] DEBUG Academy.HomePage - driver made null
23:28:44.042 [main] INFO  Academy.HomePage - ********end of HomePage test 2**********
23:28:44.043 [main] INFO  Academy.HomePage - ********start of HomePage test 2**********
23:28:44.043 [main] DEBUG resources.base - system path C:\shravan\seleniumProjects\myseleniumframeworkbuild1\src\main\java\resources\data.properties
browser Name: chrome
23:28:49.991 [main] DEBUG Academy.HomePage - ******* Start ******Itereation for systemID: 572**********
23:28:49.991 [main] DEBUG Academy.HomePage - System ID : 572
23:28:49.991 [main] DEBUG Academy.HomePage - School : Happy Valley School District
23:28:49.991 [main] DEBUG Academy.HomePage - School : 814-555-1212
23:28:49.991 [main] DEBUG Academy.HomePage - School : 334 Innovation Boulevard
23:28:49.991 [main] DEBUG Academy.HomePage - School : State College
23:28:49.992 [main] DEBUG Academy.HomePage - School : PA
23:28:49.992 [main] DEBUG Academy.HomePage - School : 16804
23:28:49.992 [main] DEBUG Academy.HomePage - School : District Building
23:28:49.992 [main] DEBUG Academy.HomePage - School : Mr. Jones
23:28:49.992 [main] DEBUG Academy.HomePage - School : http://hvhd.net//Domain/4444
23:28:49.993 [main] DEBUG Academy.HomePage - School : Superintendent Jones  Office Hours:  
23:28:49.993 [main] DEBUG Academy.HomePage - School : /cms/lib/TC00000006/centricity/Domain/8774/Lion2.jpg
23:28:49.993 [main] DEBUG Academy.HomePage - School : TRUE
23:28:49.993 [main] DEBUG Academy.HomePage - ******* End ******Itereation for systemID: 572**********
]]></system-out>
    <system-err><![CDATA[Starting ChromeDriver 2.46.628402 (536cd7adbad73a3783fdc2cab92ab2ba7ec361e1) on port 5558
Only local connections are allowed.
Please protect ports used by ChromeDriver and related test frameworks to prevent access by malicious code.
Mar 27, 2019 11:28:47 PM org.openqa.selenium.remote.ProtocolHandshake createSession
INFO: Detected dialect: OSS
]]></system-err>
  </testcase>
  <testcase name="ValidateTitle" classname="Academy.ValidateTitle" time="10.069">
    <failure message="no such element: Unable to locate element: {&quot;method&quot;:&quot;xpath&quot;,&quot;selector&quot;:&quot;//h2[contains(text(),&apos;Featured Courses&apos;)]&quot;}&#10;  (Session info: chrome=72.0.3626.121)&#10;  (Driver info: chromedriver=2.46.628402 (536cd7adbad73a3783fdc2cab92ab2ba7ec361e1),platform=Windows NT 10.0.17134 x86_64) (WARNING: The server did not provide any stacktrace information)&#10;Command duration or timeout: 0 milliseconds&#10;For documentation on this error, please visit: https://www.seleniumhq.org/exceptions/no_such_element.html&#10;Build info: version: &apos;3.141.59&apos;, revision: &apos;e82be7d358&apos;, time: &apos;2018-11-14T08:17:03&apos;&#10;System info: host: &apos;DESKTOP-0NP3OF0&apos;, ip: &apos;192.168.0.106&apos;, os.name: &apos;Windows 10&apos;, os.arch: &apos;amd64&apos;, os.version: &apos;10.0&apos;, java.version: &apos;9.0.4&apos;&#10;Driver info: org.openqa.selenium.chrome.ChromeDriver&#10;Capabilities {acceptInsecureCerts: false, acceptSslCerts: false, applicationCacheEnabled: false, browserConnectionEnabled: false, browserName: chrome, chrome: {chromedriverVersion: 2.46.628402 (536cd7adbad73a..., userDataDir: C:\Users\dhivya\AppData\Loc...}, cssSelectorsEnabled: true, databaseEnabled: false, goog:chromeOptions: {debuggerAddress: localhost:52556}, handlesAlerts: true, hasTouchScreen: false, javascriptEnabled: true, locationContextEnabled: true, mobileEmulationEnabled: false, nativeEvents: true, networkConnectionEnabled: false, pageLoadStrategy: normal, platform: XP, platformName: XP, proxy: Proxy(), rotatable: false, setWindowRect: true, strictFileInteractability: false, takesHeapSnapshot: true, takesScreenshot: true, timeouts: {implicit: 0, pageLoad: 300000, script: 30000}, unexpectedAlertBehaviour: ignore, unhandledPromptBehavior: ignore, version: 72.0.3626.121, webStorageEnabled: true}&#10;Session ID: 0b0578e6d1091ea6512fdfe80ffb1d3f&#10;*** Element info: {Using=xpath, value=//h2[contains(text(),&apos;Featured Courses&apos;)]}" type="org.openqa.selenium.NoSuchElementException">org.openqa.selenium.NoSuchElementException: 
no such element: Unable to locate element: {"method":"xpath","selector":"//h2[contains(text(),'Featured Courses')]"}
  (Session info: chrome=72.0.3626.121)
  (Driver info: chromedriver=2.46.628402 (536cd7adbad73a3783fdc2cab92ab2ba7ec361e1),platform=Windows NT 10.0.17134 x86_64) (WARNING: The server did not provide any stacktrace information)
Command duration or timeout: 0 milliseconds
For documentation on this error, please visit: https://www.seleniumhq.org/exceptions/no_such_element.html
Build info: version: '3.141.59', revision: 'e82be7d358', time: '2018-11-14T08:17:03'
System info: host: 'DESKTOP-0NP3OF0', ip: '192.168.0.106', os.name: 'Windows 10', os.arch: 'amd64', os.version: '10.0', java.version: '9.0.4'
Driver info: org.openqa.selenium.chrome.ChromeDriver
Capabilities {acceptInsecureCerts: false, acceptSslCerts: false, applicationCacheEnabled: false, browserConnectionEnabled: false, browserName: chrome, chrome: {chromedriverVersion: 2.46.628402 (536cd7adbad73a..., userDataDir: C:\Users\dhivya\AppData\Loc...}, cssSelectorsEnabled: true, databaseEnabled: false, goog:chromeOptions: {debuggerAddress: localhost:52556}, handlesAlerts: true, hasTouchScreen: false, javascriptEnabled: true, locationContextEnabled: true, mobileEmulationEnabled: false, nativeEvents: true, networkConnectionEnabled: false, pageLoadStrategy: normal, platform: XP, platformName: XP, proxy: Proxy(), rotatable: false, setWindowRect: true, strictFileInteractability: false, takesHeapSnapshot: true, takesScreenshot: true, timeouts: {implicit: 0, pageLoad: 300000, script: 30000}, unexpectedAlertBehaviour: ignore, unhandledPromptBehavior: ignore, version: 72.0.3626.121, webStorageEnabled: true}
Session ID: 0b0578e6d1091ea6512fdfe80ffb1d3f
*** Element info: {Using=xpath, value=//h2[contains(text(),'Featured Courses')]}
	at Academy.ValidateTitle.ValidateTitle(ValidateTitle.java:38)
</failure>
    <system-out><![CDATA[23:29:00.043 [main] DEBUG resources.listeners - Enter onTestFailure Method
23:29:00.434 [main] DEBUG resources.listeners - Exit onTestFailure Method
23:29:00.629 [main] DEBUG Academy.HomePage - broswer closed
23:29:00.630 [main] DEBUG Academy.HomePage - driver made null
23:29:00.630 [main] INFO  Academy.HomePage - ********end of HomePage test 2**********
23:29:00.664 [main] INFO  Academy.ValidateTitle - ********start of ValidateTitle test 3**********
23:29:00.665 [main] DEBUG resources.base - system path C:\shravan\seleniumProjects\myseleniumframeworkbuild1\src\main\java\resources\data.properties
browser Name: chrome
23:29:03.191 [main] INFO  Academy.ValidateTitle - Driver is initialized
23:29:06.413 [main] DEBUG Academy.ValidateTitle - URL is launched
23:29:06.414 [main] INFO  Academy.ValidateTitle - In basePageNavigation Method
23:29:06.414 [main] DEBUG Academy.ValidateTitle - first Assertion
]]></system-out>
    <system-err><![CDATA[Starting ChromeDriver 2.46.628402 (536cd7adbad73a3783fdc2cab92ab2ba7ec361e1) on port 35700
Only local connections are allowed.
Please protect ports used by ChromeDriver and related test frameworks to prevent access by malicious code.
Mar 27, 2019 11:29:03 PM org.openqa.selenium.remote.ProtocolHandshake createSession
INFO: Detected dialect: OSS
]]></system-err>
  </testcase>
</testsuite>