C:\shravan\seleniumProjects\myseleniumframeworkbuild1\src\main\java\Academy\App.java
C:\shravan\seleniumProjects\myseleniumframeworkbuild1\src\main\java\resources\base.java
C:\shravan\seleniumProjects\myseleniumframeworkbuild1\src\main\java\resources\listeners.java
C:\shravan\seleniumProjects\myseleniumframeworkbuild1\src\main\java\pageObjects\LoginPage.java
C:\shravan\seleniumProjects\myseleniumframeworkbuild1\src\main\java\pageObjects\LandingPage.java
