C:\shravan\seleniumProjects\myseleniumframeworkbuild1\src\test\java\Academy\ValidateNavBar.java
C:\shravan\seleniumProjects\myseleniumframeworkbuild1\src\test\java\Academy\ValidateTitle.java
C:\shravan\seleniumProjects\myseleniumframeworkbuild1\src\test\java\Academy\HomePage.java
C:\shravan\seleniumProjects\myseleniumframeworkbuild1\src\test\java\Academy\first.java
C:\shravan\seleniumProjects\myseleniumframeworkbuild1\src\test\java\Academy\AppTest.java
C:\shravan\seleniumProjects\myseleniumframeworkbuild1\src\test\java\Academy\ReadCVS2HashMap.java
